{
  "project_info": {
    "project_number": "142478465466",
    "firebase_url": "https://mdoc-c2605.firebaseio.com",
    "project_id": "mdoc-c2605",
    "storage_bucket": "mdoc-c2605.appspot.com"
  },
  "client": [
    {
      "client_info": {
        "mobilesdk_app_id": "1:142478465466:android:6ec93ac64a56ad07",
        "android_client_info": {
          "package_name": "de.achen"
        }
      },
      "oauth_client": [
        {
          "client_id": "142478465466-8ppt3ogpvj73vuugsa6e4g88q6dnn022.apps.googleusercontent.com",
          "client_type": 3
        }
      ],
      "api_key": [
        {
          "current_key": "AIzaSyBSctns86KnuUhfIgMuwebpOerdYluywVQ"
        }
      ],
      "services": {
        "appinvite_service": {
          "other_platform_oauth_client": [
            {
              "client_id": "142478465466-8ppt3ogpvj73vuugsa6e4g88q6dnn022.apps.googleusercontent.com",
              "client_type": 3
            },
            {
              "client_id": "142478465466-02d0c3d92av57os87173mhou6je73il4.apps.googleusercontent.com",
              "client_type": 2,
              "ios_info": {
                "bundle_id": "one.mdoc.cgm"
              }
            }
          ]
        }
      }
    },
    {
      "client_info": {
        "mobilesdk_app_id": "1:142478465466:android:d309dc7f52cffda5baa583",
        "android_client_info": {
          "package_name": "de.ameos"
        }
      },
      "oauth_client": [
        {
          "client_id": "142478465466-8ppt3ogpvj73vuugsa6e4g88q6dnn022.apps.googleusercontent.com",
          "client_type": 3
        }
      ],
      "api_key": [
        {
          "current_key": "AIzaSyBSctns86KnuUhfIgMuwebpOerdYluywVQ"
        }
      ],
      "services": {
        "appinvite_service": {
          "other_platform_oauth_client": [
            {
              "client_id": "142478465466-8ppt3ogpvj73vuugsa6e4g88q6dnn022.apps.googleusercontent.com",
              "client_type": 3
            },
            {
              "client_id": "142478465466-02d0c3d92av57os87173mhou6je73il4.apps.googleusercontent.com",
              "client_type": 2,
              "ios_info": {
                "bundle_id": "one.mdoc.cgm"
              }
            }
          ]
        }
      }
    },
    {
      "client_info": {
        "mobilesdk_app_id": "1:142478465466:android:6e58730cbea12e68baa583",
        "android_client_info": {
          "package_name": "de.ameosvideo"
        }
      },
      "oauth_client": [
        {
          "client_id": "142478465466-8ppt3ogpvj73vuugsa6e4g88q6dnn022.apps.googleusercontent.com",
          "client_type": 3
        }
      ],
      "api_key": [
        {
          "current_key": "AIzaSyBSctns86KnuUhfIgMuwebpOerdYluywVQ"
        }
      ],
      "services": {
        "appinvite_service": {
          "other_platform_oauth_client": [
            {
              "client_id": "142478465466-8ppt3ogpvj73vuugsa6e4g88q6dnn022.apps.googleusercontent.com",
              "client_type": 3
            },
            {
              "client_id": "142478465466-02d0c3d92av57os87173mhou6je73il4.apps.googleusercontent.com",
              "client_type": 2,
              "ios_info": {
                "bundle_id": "one.mdoc.cgm"
              }
            }
          ]
        }
      }
    },
    {
      "client_info": {
        "mobilesdk_app_id": "1:142478465466:android:91240d633bb19bc3",
        "android_client_info": {
          "package_name": "de.asthmawelt"
        }
      },
      "oauth_client": [
        {
          "client_id": "142478465466-8ppt3ogpvj73vuugsa6e4g88q6dnn022.apps.googleusercontent.com",
          "client_type": 3
        }
      ],
      "api_key": [
        {
          "current_key": "AIzaSyBSctns86KnuUhfIgMuwebpOerdYluywVQ"
        }
      ],
      "services": {
        "appinvite_service": {
          "other_platform_oauth_client": [
            {
              "client_id": "142478465466-8ppt3ogpvj73vuugsa6e4g88q6dnn022.apps.googleusercontent.com",
              "client_type": 3
            },
            {
              "client_id": "142478465466-02d0c3d92av57os87173mhou6je73il4.apps.googleusercontent.com",
              "client_type": 2,
              "ios_info": {
                "bundle_id": "one.mdoc.cgm"
              }
            }
          ]
        }
      }
    },
    {
      "client_info": {
        "mobilesdk_app_id": "1:142478465466:android:7b5403374388cb9e",
        "android_client_info": {
          "package_name": "de.badrappenau"
        }
      },
      "oauth_client": [
        {
          "client_id": "142478465466-8ppt3ogpvj73vuugsa6e4g88q6dnn022.apps.googleusercontent.com",
          "client_type": 3
        }
      ],
      "api_key": [
        {
          "current_key": "AIzaSyBSctns86KnuUhfIgMuwebpOerdYluywVQ"
        }
      ],
      "services": {
        "appinvite_service": {
          "other_platform_oauth_client": [
            {
              "client_id": "142478465466-8ppt3ogpvj73vuugsa6e4g88q6dnn022.apps.googleusercontent.com",
              "client_type": 3
            },
            {
              "client_id": "142478465466-02d0c3d92av57os87173mhou6je73il4.apps.googleusercontent.com",
              "client_type": 2,
              "ios_info": {
                "bundle_id": "one.mdoc.cgm"
              }
            }
          ]
        }
      }
    },
    {
      "client_info": {
        "mobilesdk_app_id": "1:142478465466:android:c2ce1fefa68cb92fbaa583",
        "android_client_info": {
          "package_name": "de.badwaldsee"
        }
      },
      "oauth_client": [
        {
          "client_id": "142478465466-8ppt3ogpvj73vuugsa6e4g88q6dnn022.apps.googleusercontent.com",
          "client_type": 3
        }
      ],
      "api_key": [
        {
          "current_key": "AIzaSyBSctns86KnuUhfIgMuwebpOerdYluywVQ"
        }
      ],
      "services": {
        "appinvite_service": {
          "other_platform_oauth_client": [
            {
              "client_id": "142478465466-8ppt3ogpvj73vuugsa6e4g88q6dnn022.apps.googleusercontent.com",
              "client_type": 3
            },
            {
              "client_id": "142478465466-02d0c3d92av57os87173mhou6je73il4.apps.googleusercontent.com",
              "client_type": 2,
              "ios_info": {
                "bundle_id": "one.mdoc.cgm"
              }
            }
          ]
        }
      }
    },
    {
      "client_info": {
        "mobilesdk_app_id": "1:142478465466:android:577b2f09538e7601",
        "android_client_info": {
          "package_name": "de.balgrist"
        }
      },
      "oauth_client": [
        {
          "client_id": "142478465466-8ppt3ogpvj73vuugsa6e4g88q6dnn022.apps.googleusercontent.com",
          "client_type": 3
        }
      ],
      "api_key": [
        {
          "current_key": "AIzaSyBSctns86KnuUhfIgMuwebpOerdYluywVQ"
        }
      ],
      "services": {
        "appinvite_service": {
          "other_platform_oauth_client": [
            {
              "client_id": "142478465466-8ppt3ogpvj73vuugsa6e4g88q6dnn022.apps.googleusercontent.com",
              "client_type": 3
            },
            {
              "client_id": "142478465466-02d0c3d92av57os87173mhou6je73il4.apps.googleusercontent.com",
              "client_type": 2,
              "ios_info": {
                "bundle_id": "one.mdoc.cgm"
              }
            }
          ]
        }
      }
    },
    {
      "client_info": {
        "mobilesdk_app_id": "1:142478465466:android:675eab56029e1b6a",
        "android_client_info": {
          "package_name": "de.cerner"
        }
      },
      "oauth_client": [
        {
          "client_id": "142478465466-8ppt3ogpvj73vuugsa6e4g88q6dnn022.apps.googleusercontent.com",
          "client_type": 3
        }
      ],
      "api_key": [
        {
          "current_key": "AIzaSyBSctns86KnuUhfIgMuwebpOerdYluywVQ"
        }
      ],
      "services": {
        "appinvite_service": {
          "other_platform_oauth_client": [
            {
              "client_id": "142478465466-8ppt3ogpvj73vuugsa6e4g88q6dnn022.apps.googleusercontent.com",
              "client_type": 3
            },
            {
              "client_id": "142478465466-02d0c3d92av57os87173mhou6je73il4.apps.googleusercontent.com",
              "client_type": 2,
              "ios_info": {
                "bundle_id": "one.mdoc.cgm"
              }
            }
          ]
        }
      }
    },
    {
      "client_info": {
        "mobilesdk_app_id": "1:142478465466:android:2f502eb7ac35da82",
        "android_client_info": {
          "package_name": "de.cerner.new"
        }
      },
      "oauth_client": [
        {
          "client_id": "142478465466-8ppt3ogpvj73vuugsa6e4g88q6dnn022.apps.googleusercontent.com",
          "client_type": 3
        }
      ],
      "api_key": [
        {
          "current_key": "AIzaSyBSctns86KnuUhfIgMuwebpOerdYluywVQ"
        }
      ],
      "services": {
        "appinvite_service": {
          "other_platform_oauth_client": [
            {
              "client_id": "142478465466-8ppt3ogpvj73vuugsa6e4g88q6dnn022.apps.googleusercontent.com",
              "client_type": 3
            },
            {
              "client_id": "142478465466-02d0c3d92av57os87173mhou6je73il4.apps.googleusercontent.com",
              "client_type": 2,
              "ios_info": {
                "bundle_id": "one.mdoc.cgm"
              }
            }
          ]
        }
      }
    },
    {
      "client_info": {
        "mobilesdk_app_id": "1:142478465466:android:69fc6bf71c7fbba1",
        "android_client_info": {
          "package_name": "de.cgm"
        }
      },
      "oauth_client": [
        {
          "client_id": "142478465466-8ppt3ogpvj73vuugsa6e4g88q6dnn022.apps.googleusercontent.com",
          "client_type": 3
        }
      ],
      "api_key": [
        {
          "current_key": "AIzaSyBSctns86KnuUhfIgMuwebpOerdYluywVQ"
        }
      ],
      "services": {
        "appinvite_service": {
          "other_platform_oauth_client": [
            {
              "client_id": "142478465466-8ppt3ogpvj73vuugsa6e4g88q6dnn022.apps.googleusercontent.com",
              "client_type": 3
            },
            {
              "client_id": "142478465466-02d0c3d92av57os87173mhou6je73il4.apps.googleusercontent.com",
              "client_type": 2,
              "ios_info": {
                "bundle_id": "one.mdoc.cgm"
              }
            }
          ]
        }
      }
    },
    {
      "client_info": {
        "mobilesdk_app_id": "1:142478465466:android:9b07673d842338d5baa583",
        "android_client_info": {
          "package_name": "de.cgm_demo"
        }
      },
      "oauth_client": [
        {
          "client_id": "142478465466-8ppt3ogpvj73vuugsa6e4g88q6dnn022.apps.googleusercontent.com",
          "client_type": 3
        }
      ],
      "api_key": [
        {
          "current_key": "AIzaSyBSctns86KnuUhfIgMuwebpOerdYluywVQ"
        }
      ],
      "services": {
        "appinvite_service": {
          "other_platform_oauth_client": [
            {
              "client_id": "142478465466-8ppt3ogpvj73vuugsa6e4g88q6dnn022.apps.googleusercontent.com",
              "client_type": 3
            },
            {
              "client_id": "142478465466-02d0c3d92av57os87173mhou6je73il4.apps.googleusercontent.com",
              "client_type": 2,
              "ios_info": {
                "bundle_id": "one.mdoc.cgm"
              }
            }
          ]
        }
      }
    },
    {
      "client_info": {
        "mobilesdk_app_id": "1:142478465466:android:85a4c783b124be0dbaa583",
        "android_client_info": {
          "package_name": "de.clienia"
        }
      },
      "oauth_client": [
        {
          "client_id": "142478465466-8ppt3ogpvj73vuugsa6e4g88q6dnn022.apps.googleusercontent.com",
          "client_type": 3
        }
      ],
      "api_key": [
        {
          "current_key": "AIzaSyBSctns86KnuUhfIgMuwebpOerdYluywVQ"
        }
      ],
      "services": {
        "appinvite_service": {
          "other_platform_oauth_client": [
            {
              "client_id": "142478465466-8ppt3ogpvj73vuugsa6e4g88q6dnn022.apps.googleusercontent.com",
              "client_type": 3
            },
            {
              "client_id": "142478465466-02d0c3d92av57os87173mhou6je73il4.apps.googleusercontent.com",
              "client_type": 2,
              "ios_info": {
                "bundle_id": "one.mdoc.cgm"
              }
            }
          ]
        }
      }
    },
    {
      "client_info": {
        "mobilesdk_app_id": "1:142478465466:android:5b735ab14a6661d5baa583",
        "android_client_info": {
          "package_name": "de.clienia_demo"
        }
      },
      "oauth_client": [
        {
          "client_id": "142478465466-8ppt3ogpvj73vuugsa6e4g88q6dnn022.apps.googleusercontent.com",
          "client_type": 3
        }
      ],
      "api_key": [
        {
          "current_key": "AIzaSyBSctns86KnuUhfIgMuwebpOerdYluywVQ"
        }
      ],
      "services": {
        "appinvite_service": {
          "other_platform_oauth_client": [
            {
              "client_id": "142478465466-8ppt3ogpvj73vuugsa6e4g88q6dnn022.apps.googleusercontent.com",
              "client_type": 3
            },
            {
              "client_id": "142478465466-02d0c3d92av57os87173mhou6je73il4.apps.googleusercontent.com",
              "client_type": 2,
              "ios_info": {
                "bundle_id": "one.mdoc.cgm"
              }
            }
          ]
        }
      }
    },
    {
      "client_info": {
        "mobilesdk_app_id": "1:142478465466:android:c5182ad9c7707835baa583",
        "android_client_info": {
          "package_name": "de.coachingportal"
        }
      },
      "oauth_client": [
        {
          "client_id": "142478465466-8ppt3ogpvj73vuugsa6e4g88q6dnn022.apps.googleusercontent.com",
          "client_type": 3
        }
      ],
      "api_key": [
        {
          "current_key": "AIzaSyBSctns86KnuUhfIgMuwebpOerdYluywVQ"
        }
      ],
      "services": {
        "appinvite_service": {
          "other_platform_oauth_client": [
            {
              "client_id": "142478465466-8ppt3ogpvj73vuugsa6e4g88q6dnn022.apps.googleusercontent.com",
              "client_type": 3
            },
            {
              "client_id": "142478465466-02d0c3d92av57os87173mhou6je73il4.apps.googleusercontent.com",
              "client_type": 2,
              "ios_info": {
                "bundle_id": "one.mdoc.cgm"
              }
            }
          ]
        }
      }
    },
    {
      "client_info": {
        "mobilesdk_app_id": "1:142478465466:android:581a2f9e3a6f1a20baa583",
        "android_client_info": {
          "package_name": "de.covid19"
        }
      },
      "oauth_client": [
        {
          "client_id": "142478465466-8ppt3ogpvj73vuugsa6e4g88q6dnn022.apps.googleusercontent.com",
          "client_type": 3
        }
      ],
      "api_key": [
        {
          "current_key": "AIzaSyBSctns86KnuUhfIgMuwebpOerdYluywVQ"
        }
      ],
      "services": {
        "appinvite_service": {
          "other_platform_oauth_client": [
            {
              "client_id": "142478465466-8ppt3ogpvj73vuugsa6e4g88q6dnn022.apps.googleusercontent.com",
              "client_type": 3
            },
            {
              "client_id": "142478465466-02d0c3d92av57os87173mhou6je73il4.apps.googleusercontent.com",
              "client_type": 2,
              "ios_info": {
                "bundle_id": "one.mdoc.cgm"
              }
            }
          ]
        }
      }
    },
    {
      "client_info": {
        "mobilesdk_app_id": "1:142478465466:android:ade10c1879e04f0b",
        "android_client_info": {
          "package_name": "de.demo"
        }
      },
      "oauth_client": [
        {
          "client_id": "142478465466-8ppt3ogpvj73vuugsa6e4g88q6dnn022.apps.googleusercontent.com",
          "client_type": 3
        }
      ],
      "api_key": [
        {
          "current_key": "AIzaSyBSctns86KnuUhfIgMuwebpOerdYluywVQ"
        }
      ],
      "services": {
        "appinvite_service": {
          "other_platform_oauth_client": [
            {
              "client_id": "142478465466-8ppt3ogpvj73vuugsa6e4g88q6dnn022.apps.googleusercontent.com",
              "client_type": 3
            },
            {
              "client_id": "142478465466-02d0c3d92av57os87173mhou6je73il4.apps.googleusercontent.com",
              "client_type": 2,
              "ios_info": {
                "bundle_id": "one.mdoc.cgm"
              }
            }
          ]
        }
      }
    },
    {
      "client_info": {
        "mobilesdk_app_id": "1:142478465466:android:8ce400dc25828f4cbaa583",
        "android_client_info": {
          "package_name": "de.demo.essen"
        }
      },
      "oauth_client": [
        {
          "client_id": "142478465466-8ppt3ogpvj73vuugsa6e4g88q6dnn022.apps.googleusercontent.com",
          "client_type": 3
        }
      ],
      "api_key": [
        {
          "current_key": "AIzaSyBSctns86KnuUhfIgMuwebpOerdYluywVQ"
        }
      ],
      "services": {
        "appinvite_service": {
          "other_platform_oauth_client": [
            {
              "client_id": "142478465466-8ppt3ogpvj73vuugsa6e4g88q6dnn022.apps.googleusercontent.com",
              "client_type": 3
            },
            {
              "client_id": "142478465466-02d0c3d92av57os87173mhou6je73il4.apps.googleusercontent.com",
              "client_type": 2,
              "ios_info": {
                "bundle_id": "one.mdoc.cgm"
              }
            }
          ]
        }
      }
    },
    {
      "client_info": {
        "mobilesdk_app_id": "1:142478465466:android:952229be2b9a2734",
        "android_client_info": {
          "package_name": "de.drbecker"
        }
      },
      "oauth_client": [
        {
          "client_id": "142478465466-8ppt3ogpvj73vuugsa6e4g88q6dnn022.apps.googleusercontent.com",
          "client_type": 3
        }
      ],
      "api_key": [
        {
          "current_key": "AIzaSyBSctns86KnuUhfIgMuwebpOerdYluywVQ"
        }
      ],
      "services": {
        "appinvite_service": {
          "other_platform_oauth_client": [
            {
              "client_id": "142478465466-8ppt3ogpvj73vuugsa6e4g88q6dnn022.apps.googleusercontent.com",
              "client_type": 3
            },
            {
              "client_id": "142478465466-02d0c3d92av57os87173mhou6je73il4.apps.googleusercontent.com",
              "client_type": 2,
              "ios_info": {
                "bundle_id": "one.mdoc.cgm"
              }
            }
          ]
        }
      }
    },
    {
      "client_info": {
        "mobilesdk_app_id": "1:142478465466:android:75ba92f0741503f0",
        "android_client_info": {
          "package_name": "de.drromer"
        }
      },
      "oauth_client": [
        {
          "client_id": "142478465466-8ppt3ogpvj73vuugsa6e4g88q6dnn022.apps.googleusercontent.com",
          "client_type": 3
        }
      ],
      "api_key": [
        {
          "current_key": "AIzaSyBSctns86KnuUhfIgMuwebpOerdYluywVQ"
        }
      ],
      "services": {
        "appinvite_service": {
          "other_platform_oauth_client": [
            {
              "client_id": "142478465466-8ppt3ogpvj73vuugsa6e4g88q6dnn022.apps.googleusercontent.com",
              "client_type": 3
            },
            {
              "client_id": "142478465466-02d0c3d92av57os87173mhou6je73il4.apps.googleusercontent.com",
              "client_type": 2,
              "ios_info": {
                "bundle_id": "one.mdoc.cgm"
              }
            }
          ]
        }
      }
    },
    {
      "client_info": {
        "mobilesdk_app_id": "1:142478465466:android:1e7730ca90148ce9",
        "android_client_info": {
          "package_name": "de.essen"
        }
      },
      "oauth_client": [
        {
          "client_id": "142478465466-8ppt3ogpvj73vuugsa6e4g88q6dnn022.apps.googleusercontent.com",
          "client_type": 3
        }
      ],
      "api_key": [
        {
          "current_key": "AIzaSyBSctns86KnuUhfIgMuwebpOerdYluywVQ"
        }
      ],
      "services": {
        "appinvite_service": {
          "other_platform_oauth_client": [
            {
              "client_id": "142478465466-8ppt3ogpvj73vuugsa6e4g88q6dnn022.apps.googleusercontent.com",
              "client_type": 3
            },
            {
              "client_id": "142478465466-02d0c3d92av57os87173mhou6je73il4.apps.googleusercontent.com",
              "client_type": 2,
              "ios_info": {
                "bundle_id": "one.mdoc.cgm"
              }
            }
          ]
        }
      }
    },
    {
      "client_info": {
        "mobilesdk_app_id": "1:142478465466:android:7f25a4d9edae0ccb",
        "android_client_info": {
          "package_name": "de.gzf"
        }
      },
      "oauth_client": [
        {
          "client_id": "142478465466-8ppt3ogpvj73vuugsa6e4g88q6dnn022.apps.googleusercontent.com",
          "client_type": 3
        }
      ],
      "api_key": [
        {
          "current_key": "AIzaSyBSctns86KnuUhfIgMuwebpOerdYluywVQ"
        }
      ],
      "services": {
        "appinvite_service": {
          "other_platform_oauth_client": [
            {
              "client_id": "142478465466-8ppt3ogpvj73vuugsa6e4g88q6dnn022.apps.googleusercontent.com",
              "client_type": 3
            },
            {
              "client_id": "142478465466-02d0c3d92av57os87173mhou6je73il4.apps.googleusercontent.com",
              "client_type": 2,
              "ios_info": {
                "bundle_id": "one.mdoc.cgm"
              }
            }
          ]
        }
      }
    },
    {
      "client_info": {
        "mobilesdk_app_id": "1:142478465466:android:b4a5ab7098ceb2a5baa583",
        "android_client_info": {
          "package_name": "de.imedportal_demo"
        }
      },
      "oauth_client": [
        {
          "client_id": "142478465466-8ppt3ogpvj73vuugsa6e4g88q6dnn022.apps.googleusercontent.com",
          "client_type": 3
        }
      ],
      "api_key": [
        {
          "current_key": "AIzaSyBSctns86KnuUhfIgMuwebpOerdYluywVQ"
        }
      ],
      "services": {
        "appinvite_service": {
          "other_platform_oauth_client": [
            {
              "client_id": "142478465466-8ppt3ogpvj73vuugsa6e4g88q6dnn022.apps.googleusercontent.com",
              "client_type": 3
            },
            {
              "client_id": "142478465466-02d0c3d92av57os87173mhou6je73il4.apps.googleusercontent.com",
              "client_type": 2,
              "ios_info": {
                "bundle_id": "one.mdoc.cgm"
              }
            }
          ]
        }
      }
    },
    {
      "client_info": {
        "mobilesdk_app_id": "1:142478465466:android:ed6bfd0ca2db381fbaa583",
        "android_client_info": {
          "package_name": "de.ines"
        }
      },
      "oauth_client": [
        {
          "client_id": "142478465466-8ppt3ogpvj73vuugsa6e4g88q6dnn022.apps.googleusercontent.com",
          "client_type": 3
        }
      ],
      "api_key": [
        {
          "current_key": "AIzaSyBSctns86KnuUhfIgMuwebpOerdYluywVQ"
        }
      ],
      "services": {
        "appinvite_service": {
          "other_platform_oauth_client": [
            {
              "client_id": "142478465466-8ppt3ogpvj73vuugsa6e4g88q6dnn022.apps.googleusercontent.com",
              "client_type": 3
            },
            {
              "client_id": "142478465466-02d0c3d92av57os87173mhou6je73il4.apps.googleusercontent.com",
              "client_type": 2,
              "ios_info": {
                "bundle_id": "one.mdoc.cgm"
              }
            }
          ]
        }
      }
    },
    {
      "client_info": {
        "mobilesdk_app_id": "1:142478465466:android:1caab8d63038a591baa583",
        "android_client_info": {
          "package_name": "de.ines_demo"
        }
      },
      "oauth_client": [
        {
          "client_id": "142478465466-8ppt3ogpvj73vuugsa6e4g88q6dnn022.apps.googleusercontent.com",
          "client_type": 3
        }
      ],
      "api_key": [
        {
          "current_key": "AIzaSyBSctns86KnuUhfIgMuwebpOerdYluywVQ"
        }
      ],
      "services": {
        "appinvite_service": {
          "other_platform_oauth_client": [
            {
              "client_id": "142478465466-8ppt3ogpvj73vuugsa6e4g88q6dnn022.apps.googleusercontent.com",
              "client_type": 3
            },
            {
              "client_id": "142478465466-02d0c3d92av57os87173mhou6je73il4.apps.googleusercontent.com",
              "client_type": 2,
              "ios_info": {
                "bundle_id": "one.mdoc.cgm"
              }
            }
          ]
        }
      }
    },
    {
      "client_info": {
        "mobilesdk_app_id": "1:142478465466:android:675dcd2db1db4abebaa583",
        "android_client_info": {
          "package_name": "de.itsmylife"
        }
      },
      "oauth_client": [
        {
          "client_id": "142478465466-8ppt3ogpvj73vuugsa6e4g88q6dnn022.apps.googleusercontent.com",
          "client_type": 3
        }
      ],
      "api_key": [
        {
          "current_key": "AIzaSyBSctns86KnuUhfIgMuwebpOerdYluywVQ"
        }
      ],
      "services": {
        "appinvite_service": {
          "other_platform_oauth_client": [
            {
              "client_id": "142478465466-8ppt3ogpvj73vuugsa6e4g88q6dnn022.apps.googleusercontent.com",
              "client_type": 3
            },
            {
              "client_id": "142478465466-02d0c3d92av57os87173mhou6je73il4.apps.googleusercontent.com",
              "client_type": 2,
              "ios_info": {
                "bundle_id": "one.mdoc.cgm"
              }
            }
          ]
        }
      }
    },
    {
      "client_info": {
        "mobilesdk_app_id": "1:142478465466:android:a1fe5eefcd4c5e5c",
        "android_client_info": {
          "package_name": "de.johannesbad"
        }
      },
      "oauth_client": [
        {
          "client_id": "142478465466-8ppt3ogpvj73vuugsa6e4g88q6dnn022.apps.googleusercontent.com",
          "client_type": 3
        }
      ],
      "api_key": [
        {
          "current_key": "AIzaSyBSctns86KnuUhfIgMuwebpOerdYluywVQ"
        }
      ],
      "services": {
        "appinvite_service": {
          "other_platform_oauth_client": [
            {
              "client_id": "142478465466-8ppt3ogpvj73vuugsa6e4g88q6dnn022.apps.googleusercontent.com",
              "client_type": 3
            },
            {
              "client_id": "142478465466-02d0c3d92av57os87173mhou6je73il4.apps.googleusercontent.com",
              "client_type": 2,
              "ios_info": {
                "bundle_id": "one.mdoc.cgm"
              }
            }
          ]
        }
      }
    },
    {
      "client_info": {
        "mobilesdk_app_id": "1:142478465466:android:bb5d94b8fed3949cbaa583",
        "android_client_info": {
          "package_name": "de.johanniter"
        }
      },
      "oauth_client": [
        {
          "client_id": "142478465466-8ppt3ogpvj73vuugsa6e4g88q6dnn022.apps.googleusercontent.com",
          "client_type": 3
        }
      ],
      "api_key": [
        {
          "current_key": "AIzaSyBSctns86KnuUhfIgMuwebpOerdYluywVQ"
        }
      ],
      "services": {
        "appinvite_service": {
          "other_platform_oauth_client": [
            {
              "client_id": "142478465466-8ppt3ogpvj73vuugsa6e4g88q6dnn022.apps.googleusercontent.com",
              "client_type": 3
            },
            {
              "client_id": "142478465466-02d0c3d92av57os87173mhou6je73il4.apps.googleusercontent.com",
              "client_type": 2,
              "ios_info": {
                "bundle_id": "one.mdoc.cgm"
              }
            }
          ]
        }
      }
    },
    {
      "client_info": {
        "mobilesdk_app_id": "1:142478465466:android:3753b2c7be133ae3baa583",
        "android_client_info": {
          "package_name": "de.kaitan"
        }
      },
      "oauth_client": [
        {
          "client_id": "142478465466-8ppt3ogpvj73vuugsa6e4g88q6dnn022.apps.googleusercontent.com",
          "client_type": 3
        }
      ],
      "api_key": [
        {
          "current_key": "AIzaSyBSctns86KnuUhfIgMuwebpOerdYluywVQ"
        }
      ],
      "services": {
        "appinvite_service": {
          "other_platform_oauth_client": [
            {
              "client_id": "142478465466-8ppt3ogpvj73vuugsa6e4g88q6dnn022.apps.googleusercontent.com",
              "client_type": 3
            },
            {
              "client_id": "142478465466-02d0c3d92av57os87173mhou6je73il4.apps.googleusercontent.com",
              "client_type": 2,
              "ios_info": {
                "bundle_id": "one.mdoc.cgm"
              }
            }
          ]
        }
      }
    },
    {
      "client_info": {
        "mobilesdk_app_id": "1:142478465466:android:e7a2b90e68b5031d",
        "android_client_info": {
          "package_name": "de.kurreha"
        }
      },
      "oauth_client": [
        {
          "client_id": "142478465466-8ppt3ogpvj73vuugsa6e4g88q6dnn022.apps.googleusercontent.com",
          "client_type": 3
        }
      ],
      "api_key": [
        {
          "current_key": "AIzaSyBSctns86KnuUhfIgMuwebpOerdYluywVQ"
        }
      ],
      "services": {
        "appinvite_service": {
          "other_platform_oauth_client": [
            {
              "client_id": "142478465466-8ppt3ogpvj73vuugsa6e4g88q6dnn022.apps.googleusercontent.com",
              "client_type": 3
            },
            {
              "client_id": "142478465466-02d0c3d92av57os87173mhou6je73il4.apps.googleusercontent.com",
              "client_type": 2,
              "ios_info": {
                "bundle_id": "one.mdoc.cgm"
              }
            }
          ]
        }
      }
    },
    {
      "client_info": {
        "mobilesdk_app_id": "1:142478465466:android:dc38eecdcafbabf6",
        "android_client_info": {
          "package_name": "de.mdockiosk"
        }
      },
      "oauth_client": [
        {
          "client_id": "142478465466-8ppt3ogpvj73vuugsa6e4g88q6dnn022.apps.googleusercontent.com",
          "client_type": 3
        }
      ],
      "api_key": [
        {
          "current_key": "AIzaSyBSctns86KnuUhfIgMuwebpOerdYluywVQ"
        }
      ],
      "services": {
        "appinvite_service": {
          "other_platform_oauth_client": [
            {
              "client_id": "142478465466-8ppt3ogpvj73vuugsa6e4g88q6dnn022.apps.googleusercontent.com",
              "client_type": 3
            },
            {
              "client_id": "142478465466-02d0c3d92av57os87173mhou6je73il4.apps.googleusercontent.com",
              "client_type": 2,
              "ios_info": {
                "bundle_id": "one.mdoc.cgm"
              }
            }
          ]
        }
      }
    },
    {
      "client_info": {
        "mobilesdk_app_id": "1:142478465466:android:95b5a723af97a15e",
        "android_client_info": {
          "package_name": "de.medicalpark"
        }
      },
      "oauth_client": [
        {
          "client_id": "142478465466-8ppt3ogpvj73vuugsa6e4g88q6dnn022.apps.googleusercontent.com",
          "client_type": 3
        }
      ],
      "api_key": [
        {
          "current_key": "AIzaSyBSctns86KnuUhfIgMuwebpOerdYluywVQ"
        }
      ],
      "services": {
        "appinvite_service": {
          "other_platform_oauth_client": [
            {
              "client_id": "142478465466-8ppt3ogpvj73vuugsa6e4g88q6dnn022.apps.googleusercontent.com",
              "client_type": 3
            },
            {
              "client_id": "142478465466-02d0c3d92av57os87173mhou6je73il4.apps.googleusercontent.com",
              "client_type": 2,
              "ios_info": {
                "bundle_id": "one.mdoc.cgm"
              }
            }
          ]
        }
      }
    },
    {
      "client_info": {
        "mobilesdk_app_id": "1:142478465466:android:e9fcd9692f703b30",
        "android_client_info": {
          "package_name": "de.passauerwolf"
        }
      },
      "oauth_client": [
        {
          "client_id": "142478465466-8ppt3ogpvj73vuugsa6e4g88q6dnn022.apps.googleusercontent.com",
          "client_type": 3
        }
      ],
      "api_key": [
        {
          "current_key": "AIzaSyBSctns86KnuUhfIgMuwebpOerdYluywVQ"
        }
      ],
      "services": {
        "appinvite_service": {
          "other_platform_oauth_client": [
            {
              "client_id": "142478465466-8ppt3ogpvj73vuugsa6e4g88q6dnn022.apps.googleusercontent.com",
              "client_type": 3
            },
            {
              "client_id": "142478465466-02d0c3d92av57os87173mhou6je73il4.apps.googleusercontent.com",
              "client_type": 2,
              "ios_info": {
                "bundle_id": "one.mdoc.cgm"
              }
            }
          ]
        }
      }
    },
    {
      "client_info": {
        "mobilesdk_app_id": "1:142478465466:android:51676aeca832aabcbaa583",
        "android_client_info": {
          "package_name": "de.peesurst"
        }
      },
      "oauth_client": [
        {
          "client_id": "142478465466-8ppt3ogpvj73vuugsa6e4g88q6dnn022.apps.googleusercontent.com",
          "client_type": 3
        }
      ],
      "api_key": [
        {
          "current_key": "AIzaSyBSctns86KnuUhfIgMuwebpOerdYluywVQ"
        }
      ],
      "services": {
        "appinvite_service": {
          "other_platform_oauth_client": [
            {
              "client_id": "142478465466-8ppt3ogpvj73vuugsa6e4g88q6dnn022.apps.googleusercontent.com",
              "client_type": 3
            },
            {
              "client_id": "142478465466-02d0c3d92av57os87173mhou6je73il4.apps.googleusercontent.com",
              "client_type": 2,
              "ios_info": {
                "bundle_id": "one.mdoc.cgm"
              }
            }
          ]
        }
      }
    },
    {
      "client_info": {
        "mobilesdk_app_id": "1:142478465466:android:7fdc1bafd0ad9d61baa583",
        "android_client_info": {
          "package_name": "de.rhon"
        }
      },
      "oauth_client": [
        {
          "client_id": "142478465466-8ppt3ogpvj73vuugsa6e4g88q6dnn022.apps.googleusercontent.com",
          "client_type": 3
        }
      ],
      "api_key": [
        {
          "current_key": "AIzaSyBSctns86KnuUhfIgMuwebpOerdYluywVQ"
        }
      ],
      "services": {
        "appinvite_service": {
          "other_platform_oauth_client": [
            {
              "client_id": "142478465466-8ppt3ogpvj73vuugsa6e4g88q6dnn022.apps.googleusercontent.com",
              "client_type": 3
            },
            {
              "client_id": "142478465466-02d0c3d92av57os87173mhou6je73il4.apps.googleusercontent.com",
              "client_type": 2,
              "ios_info": {
                "bundle_id": "one.mdoc.cgm"
              }
            }
          ]
        }
      }
    },
    {
      "client_info": {
        "mobilesdk_app_id": "1:142478465466:android:0291e579ff075353baa583",
        "android_client_info": {
          "package_name": "de.schloss"
        }
      },
      "oauth_client": [
        {
          "client_id": "142478465466-8ppt3ogpvj73vuugsa6e4g88q6dnn022.apps.googleusercontent.com",
          "client_type": 3
        }
      ],
      "api_key": [
        {
          "current_key": "AIzaSyBSctns86KnuUhfIgMuwebpOerdYluywVQ"
        }
      ],
      "services": {
        "appinvite_service": {
          "other_platform_oauth_client": [
            {
              "client_id": "142478465466-8ppt3ogpvj73vuugsa6e4g88q6dnn022.apps.googleusercontent.com",
              "client_type": 3
            },
            {
              "client_id": "142478465466-02d0c3d92av57os87173mhou6je73il4.apps.googleusercontent.com",
              "client_type": 2,
              "ios_info": {
                "bundle_id": "one.mdoc.cgm"
              }
            }
          ]
        }
      }
    },
    {
      "client_info": {
        "mobilesdk_app_id": "1:142478465466:android:a14f5fbc2bfe1608",
        "android_client_info": {
          "package_name": "de.sit"
        }
      },
      "oauth_client": [
        {
          "client_id": "142478465466-8ppt3ogpvj73vuugsa6e4g88q6dnn022.apps.googleusercontent.com",
          "client_type": 3
        }
      ],
      "api_key": [
        {
          "current_key": "AIzaSyBSctns86KnuUhfIgMuwebpOerdYluywVQ"
        }
      ],
      "services": {
        "appinvite_service": {
          "other_platform_oauth_client": [
            {
              "client_id": "142478465466-8ppt3ogpvj73vuugsa6e4g88q6dnn022.apps.googleusercontent.com",
              "client_type": 3
            },
            {
              "client_id": "142478465466-02d0c3d92av57os87173mhou6je73il4.apps.googleusercontent.com",
              "client_type": 2,
              "ios_info": {
                "bundle_id": "one.mdoc.cgm"
              }
            }
          ]
        }
      }
    },
    {
      "client_info": {
        "mobilesdk_app_id": "1:142478465466:android:75ae65bd4c1ebd2fbaa583",
        "android_client_info": {
          "package_name": "de.staatsbaeder"
        }
      },
      "oauth_client": [
        {
          "client_id": "142478465466-8ppt3ogpvj73vuugsa6e4g88q6dnn022.apps.googleusercontent.com",
          "client_type": 3
        }
      ],
      "api_key": [
        {
          "current_key": "AIzaSyBSctns86KnuUhfIgMuwebpOerdYluywVQ"
        }
      ],
      "services": {
        "appinvite_service": {
          "other_platform_oauth_client": [
            {
              "client_id": "142478465466-8ppt3ogpvj73vuugsa6e4g88q6dnn022.apps.googleusercontent.com",
              "client_type": 3
            },
            {
              "client_id": "142478465466-02d0c3d92av57os87173mhou6je73il4.apps.googleusercontent.com",
              "client_type": 2,
              "ios_info": {
                "bundle_id": "one.mdoc.cgm"
              }
            }
          ]
        }
      }
    },
    {
      "client_info": {
        "mobilesdk_app_id": "1:142478465466:android:5e60e515f0a0e94b",
        "android_client_info": {
          "package_name": "de.telekom"
        }
      },
      "oauth_client": [
        {
          "client_id": "142478465466-8ppt3ogpvj73vuugsa6e4g88q6dnn022.apps.googleusercontent.com",
          "client_type": 3
        }
      ],
      "api_key": [
        {
          "current_key": "AIzaSyBSctns86KnuUhfIgMuwebpOerdYluywVQ"
        }
      ],
      "services": {
        "appinvite_service": {
          "other_platform_oauth_client": [
            {
              "client_id": "142478465466-8ppt3ogpvj73vuugsa6e4g88q6dnn022.apps.googleusercontent.com",
              "client_type": 3
            },
            {
              "client_id": "142478465466-02d0c3d92av57os87173mhou6je73il4.apps.googleusercontent.com",
              "client_type": 2,
              "ios_info": {
                "bundle_id": "one.mdoc.cgm"
              }
            }
          ]
        }
      }
    },
    {
      "client_info": {
        "mobilesdk_app_id": "1:142478465466:android:6519a1f76f162182baa583",
        "android_client_info": {
          "package_name": "de.telemedicine"
        }
      },
      "oauth_client": [
        {
          "client_id": "142478465466-8ppt3ogpvj73vuugsa6e4g88q6dnn022.apps.googleusercontent.com",
          "client_type": 3
        }
      ],
      "api_key": [
        {
          "current_key": "AIzaSyBSctns86KnuUhfIgMuwebpOerdYluywVQ"
        }
      ],
      "services": {
        "appinvite_service": {
          "other_platform_oauth_client": [
            {
              "client_id": "142478465466-8ppt3ogpvj73vuugsa6e4g88q6dnn022.apps.googleusercontent.com",
              "client_type": 3
            },
            {
              "client_id": "142478465466-02d0c3d92av57os87173mhou6je73il4.apps.googleusercontent.com",
              "client_type": 2,
              "ios_info": {
                "bundle_id": "one.mdoc.cgm"
              }
            }
          ]
        }
      }
    },
    {
      "client_info": {
        "mobilesdk_app_id": "1:142478465466:android:095c3ba021d73aad",
        "android_client_info": {
          "package_name": "de.thieme"
        }
      },
      "oauth_client": [
        {
          "client_id": "142478465466-8ppt3ogpvj73vuugsa6e4g88q6dnn022.apps.googleusercontent.com",
          "client_type": 3
        }
      ],
      "api_key": [
        {
          "current_key": "AIzaSyBSctns86KnuUhfIgMuwebpOerdYluywVQ"
        }
      ],
      "services": {
        "appinvite_service": {
          "other_platform_oauth_client": [
            {
              "client_id": "142478465466-8ppt3ogpvj73vuugsa6e4g88q6dnn022.apps.googleusercontent.com",
              "client_type": 3
            },
            {
              "client_id": "142478465466-02d0c3d92av57os87173mhou6je73il4.apps.googleusercontent.com",
              "client_type": 2,
              "ios_info": {
                "bundle_id": "one.mdoc.cgm"
              }
            }
          ]
        }
      }
    },
    {
      "client_info": {
        "mobilesdk_app_id": "1:142478465466:android:633d8850fb0506ba",
        "android_client_info": {
          "package_name": "de.uat"
        }
      },
      "oauth_client": [
        {
          "client_id": "142478465466-8ppt3ogpvj73vuugsa6e4g88q6dnn022.apps.googleusercontent.com",
          "client_type": 3
        }
      ],
      "api_key": [
        {
          "current_key": "AIzaSyBSctns86KnuUhfIgMuwebpOerdYluywVQ"
        }
      ],
      "services": {
        "appinvite_service": {
          "other_platform_oauth_client": [
            {
              "client_id": "142478465466-8ppt3ogpvj73vuugsa6e4g88q6dnn022.apps.googleusercontent.com",
              "client_type": 3
            },
            {
              "client_id": "142478465466-02d0c3d92av57os87173mhou6je73il4.apps.googleusercontent.com",
              "client_type": 2,
              "ios_info": {
                "bundle_id": "one.mdoc.cgm"
              }
            }
          ]
        }
      }
    },
    {
      "client_info": {
        "mobilesdk_app_id": "1:142478465466:android:056bf553dd745f6bbaa583",
        "android_client_info": {
          "package_name": "de.uatessen"
        }
      },
      "oauth_client": [
        {
          "client_id": "142478465466-8ppt3ogpvj73vuugsa6e4g88q6dnn022.apps.googleusercontent.com",
          "client_type": 3
        }
      ],
      "api_key": [
        {
          "current_key": "AIzaSyBSctns86KnuUhfIgMuwebpOerdYluywVQ"
        }
      ],
      "services": {
        "appinvite_service": {
          "other_platform_oauth_client": [
            {
              "client_id": "142478465466-8ppt3ogpvj73vuugsa6e4g88q6dnn022.apps.googleusercontent.com",
              "client_type": 3
            },
            {
              "client_id": "142478465466-02d0c3d92av57os87173mhou6je73il4.apps.googleusercontent.com",
              "client_type": 2,
              "ios_info": {
                "bundle_id": "one.mdoc.cgm"
              }
            }
          ]
        }
      }
    },
    {
      "client_info": {
        "mobilesdk_app_id": "1:142478465466:android:57a66dfabfe41d0dbaa583",
        "android_client_info": {
          "package_name": "de.ukgm"
        }
      },
      "oauth_client": [
        {
          "client_id": "142478465466-8ppt3ogpvj73vuugsa6e4g88q6dnn022.apps.googleusercontent.com",
          "client_type": 3
        }
      ],
      "api_key": [
        {
          "current_key": "AIzaSyBSctns86KnuUhfIgMuwebpOerdYluywVQ"
        }
      ],
      "services": {
        "appinvite_service": {
          "other_platform_oauth_client": [
            {
              "client_id": "142478465466-8ppt3ogpvj73vuugsa6e4g88q6dnn022.apps.googleusercontent.com",
              "client_type": 3
            },
            {
              "client_id": "142478465466-02d0c3d92av57os87173mhou6je73il4.apps.googleusercontent.com",
              "client_type": 2,
              "ios_info": {
                "bundle_id": "one.mdoc.cgm"
              }
            }
          ]
        }
      }
    },
    {
      "client_info": {
        "mobilesdk_app_id": "1:142478465466:android:57006b83b88cad50",
        "android_client_info": {
          "package_name": "de.usz"
        }
      },
      "oauth_client": [
        {
          "client_id": "142478465466-8ppt3ogpvj73vuugsa6e4g88q6dnn022.apps.googleusercontent.com",
          "client_type": 3
        }
      ],
      "api_key": [
        {
          "current_key": "AIzaSyBSctns86KnuUhfIgMuwebpOerdYluywVQ"
        }
      ],
      "services": {
        "appinvite_service": {
          "other_platform_oauth_client": [
            {
              "client_id": "142478465466-8ppt3ogpvj73vuugsa6e4g88q6dnn022.apps.googleusercontent.com",
              "client_type": 3
            },
            {
              "client_id": "142478465466-02d0c3d92av57os87173mhou6je73il4.apps.googleusercontent.com",
              "client_type": 2,
              "ios_info": {
                "bundle_id": "one.mdoc.cgm"
              }
            }
          ]
        }
      }
    },
    {
      "client_info": {
        "mobilesdk_app_id": "1:142478465466:android:4d80c33c90da4cafbaa583",
        "android_client_info": {
          "package_name": "de.vamed"
        }
      },
      "oauth_client": [
        {
          "client_id": "142478465466-8ppt3ogpvj73vuugsa6e4g88q6dnn022.apps.googleusercontent.com",
          "client_type": 3
        }
      ],
      "api_key": [
        {
          "current_key": "AIzaSyBSctns86KnuUhfIgMuwebpOerdYluywVQ"
        }
      ],
      "services": {
        "appinvite_service": {
          "other_platform_oauth_client": [
            {
              "client_id": "142478465466-8ppt3ogpvj73vuugsa6e4g88q6dnn022.apps.googleusercontent.com",
              "client_type": 3
            },
            {
              "client_id": "142478465466-02d0c3d92av57os87173mhou6je73il4.apps.googleusercontent.com",
              "client_type": 2,
              "ios_info": {
                "bundle_id": "one.mdoc.cgm"
              }
            }
          ]
        }
      }
    },
    {
      "client_info": {
        "mobilesdk_app_id": "1:142478465466:android:3318fea5714e39ffbaa583",
        "android_client_info": {
          "package_name": "de.wessel"
        }
      },
      "oauth_client": [
        {
          "client_id": "142478465466-8ppt3ogpvj73vuugsa6e4g88q6dnn022.apps.googleusercontent.com",
          "client_type": 3
        }
      ],
      "api_key": [
        {
          "current_key": "AIzaSyBSctns86KnuUhfIgMuwebpOerdYluywVQ"
        }
      ],
      "services": {
        "appinvite_service": {
          "other_platform_oauth_client": [
            {
              "client_id": "142478465466-8ppt3ogpvj73vuugsa6e4g88q6dnn022.apps.googleusercontent.com",
              "client_type": 3
            },
            {
              "client_id": "142478465466-02d0c3d92av57os87173mhou6je73il4.apps.googleusercontent.com",
              "client_type": 2,
              "ios_info": {
                "bundle_id": "one.mdoc.cgm"
              }
            }
          ]
        }
      }
    },
    {
      "client_info": {
        "mobilesdk_app_id": "1:142478465466:android:b0012d5a742302ae",
        "android_client_info": {
          "package_name": "de.windach"
        }
      },
      "oauth_client": [
        {
          "client_id": "142478465466-8ppt3ogpvj73vuugsa6e4g88q6dnn022.apps.googleusercontent.com",
          "client_type": 3
        }
      ],
      "api_key": [
        {
          "current_key": "AIzaSyBSctns86KnuUhfIgMuwebpOerdYluywVQ"
        }
      ],
      "services": {
        "appinvite_service": {
          "other_platform_oauth_client": [
            {
              "client_id": "142478465466-8ppt3ogpvj73vuugsa6e4g88q6dnn022.apps.googleusercontent.com",
              "client_type": 3
            },
            {
              "client_id": "142478465466-02d0c3d92av57os87173mhou6je73il4.apps.googleusercontent.com",
              "client_type": 2,
              "ios_info": {
                "bundle_id": "one.mdoc.cgm"
              }
            }
          ]
        }
      }
    }
  ],
  "configuration_version": "1"
}