{
  "project_info": {
    "project_number": "497797327770",
    "firebase_url": "https://android2-fb118.firebaseio.com",
    "project_id": "android2-fb118",
    "storage_bucket": "android2-fb118.appspot.com"
  },
  "client": [
    {
      "client_info": {
        "mobilesdk_app_id": "1:497797327770:android:e62af0b33b60cf84102823",
        "android_client_info": {
          "package_name": "de.imedportal"
        }
      },
      "oauth_client": [
        {
          "client_id": "497797327770-1ffubnuhhrjg0eemos7jt4mut0a40qlo.apps.googleusercontent.com",
          "client_type": 3
        }
      ],
      "api_key": [
        {
          "current_key": "AIzaSyC005cLzeU-PqwdvMZ0pDQXYL0L0GGEKaU"
        }
      ],
      "services": {
        "appinvite_service": {
          "other_platform_oauth_client": [
            {
              "client_id": "497797327770-1ffubnuhhrjg0eemos7jt4mut0a40qlo.apps.googleusercontent.com",
              "client_type": 3
            }
          ]
        }
      }
    }
  ],
  "configuration_version": "1"
}