{
  "project_info": {
    "project_number": "497797327770",
    "firebase_url": "https://android2-fb118.firebaseio.com",
    "project_id": "android2-fb118",
    "storage_bucket": "android2-fb118.appspot.com"
  },
  "client": [
    {
      "client_info": {
        "mobilesdk_app_id": "1:497797327770:android:fb278f160ef4ac72102823",
        "android_client_info": {
          "package_name": "com.mdoc.mdockioskdev"
        }
      },
      "oauth_client": [
        {
          "client_id": "497797327770-1ffubnuhhrjg0eemos7jt4mut0a40qlo.apps.googleusercontent.com",
          "client_type": 3
        }
      ],
      "api_key": [
        {
          "current_key": "AIzaSyC005cLzeU-PqwdvMZ0pDQXYL0L0GGEKaU"
        }
      ],
      "services": {
        "appinvite_service": {
          "other_platform_oauth_client": [
            {
              "client_id": "497797327770-1ffubnuhhrjg0eemos7jt4mut0a40qlo.apps.googleusercontent.com",
              "client_type": 3
            }
          ]
        }
      }
    },
    {
      "client_info": {
        "mobilesdk_app_id": "1:497797327770:android:14ed5be80bc0c3d7102823",
        "android_client_info": {
          "package_name": "de.ameos"
        }
      },
      "oauth_client": [
        {
          "client_id": "497797327770-1ffubnuhhrjg0eemos7jt4mut0a40qlo.apps.googleusercontent.com",
          "client_type": 3
        }
      ],
      "api_key": [
        {
          "current_key": "AIzaSyC005cLzeU-PqwdvMZ0pDQXYL0L0GGEKaU"
        }
      ],
      "services": {
        "appinvite_service": {
          "other_platform_oauth_client": [
            {
              "client_id": "497797327770-1ffubnuhhrjg0eemos7jt4mut0a40qlo.apps.googleusercontent.com",
              "client_type": 3
            }
          ]
        }
      }
    },
    {
      "client_info": {
        "mobilesdk_app_id": "1:497797327770:android:e5685acda72f8245102823",
        "android_client_info": {
          "package_name": "de.bielefeld"
        }
      },
      "oauth_client": [
        {
          "client_id": "497797327770-1ffubnuhhrjg0eemos7jt4mut0a40qlo.apps.googleusercontent.com",
          "client_type": 3
        }
      ],
      "api_key": [
        {
          "current_key": "AIzaSyC005cLzeU-PqwdvMZ0pDQXYL0L0GGEKaU"
        }
      ],
      "services": {
        "appinvite_service": {
          "other_platform_oauth_client": [
            {
              "client_id": "497797327770-1ffubnuhhrjg0eemos7jt4mut0a40qlo.apps.googleusercontent.com",
              "client_type": 3
            }
          ]
        }
      }
    },
    {
      "client_info": {
        "mobilesdk_app_id": "1:497797327770:android:6881764d02142daa102823",
        "android_client_info": {
          "package_name": "de.dualis"
        }
      },
      "oauth_client": [
        {
          "client_id": "497797327770-1ffubnuhhrjg0eemos7jt4mut0a40qlo.apps.googleusercontent.com",
          "client_type": 3
        }
      ],
      "api_key": [
        {
          "current_key": "AIzaSyC005cLzeU-PqwdvMZ0pDQXYL0L0GGEKaU"
        }
      ],
      "services": {
        "appinvite_service": {
          "other_platform_oauth_client": [
            {
              "client_id": "497797327770-1ffubnuhhrjg0eemos7jt4mut0a40qlo.apps.googleusercontent.com",
              "client_type": 3
            }
          ]
        }
      }
    },
    {
      "client_info": {
        "mobilesdk_app_id": "1:497797327770:android:e62af0b33b60cf84102823",
        "android_client_info": {
          "package_name": "de.imedportal"
        }
      },
      "oauth_client": [
        {
          "client_id": "497797327770-1ffubnuhhrjg0eemos7jt4mut0a40qlo.apps.googleusercontent.com",
          "client_type": 3
        }
      ],
      "api_key": [
        {
          "current_key": "AIzaSyC005cLzeU-PqwdvMZ0pDQXYL0L0GGEKaU"
        }
      ],
      "services": {
        "appinvite_service": {
          "other_platform_oauth_client": [
            {
              "client_id": "497797327770-1ffubnuhhrjg0eemos7jt4mut0a40qlo.apps.googleusercontent.com",
              "client_type": 3
            }
          ]
        }
      }
    },
    {
      "client_info": {
        "mobilesdk_app_id": "1:497797327770:android:23423ca13c728653102823",
        "android_client_info": {
          "package_name": "de.ines"
        }
      },
      "oauth_client": [
        {
          "client_id": "497797327770-1ffubnuhhrjg0eemos7jt4mut0a40qlo.apps.googleusercontent.com",
          "client_type": 3
        }
      ],
      "api_key": [
        {
          "current_key": "AIzaSyC005cLzeU-PqwdvMZ0pDQXYL0L0GGEKaU"
        }
      ],
      "services": {
        "appinvite_service": {
          "other_platform_oauth_client": [
            {
              "client_id": "497797327770-1ffubnuhhrjg0eemos7jt4mut0a40qlo.apps.googleusercontent.com",
              "client_type": 3
            }
          ]
        }
      }
    },
    {
      "client_info": {
        "mobilesdk_app_id": "1:497797327770:android:194d9a907f266f3e102823",
        "android_client_info": {
          "package_name": "de.itsmylife"
        }
      },
      "oauth_client": [
        {
          "client_id": "497797327770-1ffubnuhhrjg0eemos7jt4mut0a40qlo.apps.googleusercontent.com",
          "client_type": 3
        }
      ],
      "api_key": [
        {
          "current_key": "AIzaSyC005cLzeU-PqwdvMZ0pDQXYL0L0GGEKaU"
        }
      ],
      "services": {
        "appinvite_service": {
          "other_platform_oauth_client": [
            {
              "client_id": "497797327770-1ffubnuhhrjg0eemos7jt4mut0a40qlo.apps.googleusercontent.com",
              "client_type": 3
            }
          ]
        }
      }
    },
    {
      "client_info": {
        "mobilesdk_app_id": "1:497797327770:android:b5ad7e0f2edfd5df102823",
        "android_client_info": {
          "package_name": "de.mdoc"
        }
      },
      "oauth_client": [
        {
          "client_id": "497797327770-1ffubnuhhrjg0eemos7jt4mut0a40qlo.apps.googleusercontent.com",
          "client_type": 3
        }
      ],
      "api_key": [
        {
          "current_key": "AIzaSyC005cLzeU-PqwdvMZ0pDQXYL0L0GGEKaU"
        }
      ],
      "services": {
        "appinvite_service": {
          "other_platform_oauth_client": [
            {
              "client_id": "497797327770-1ffubnuhhrjg0eemos7jt4mut0a40qlo.apps.googleusercontent.com",
              "client_type": 3
            }
          ]
        }
      }
    },
    {
      "client_info": {
        "mobilesdk_app_id": "1:497797327770:android:7fa3e86f13350876102823",
        "android_client_info": {
          "package_name": "de.oberberg"
        }
      },
      "oauth_client": [
        {
          "client_id": "497797327770-1ffubnuhhrjg0eemos7jt4mut0a40qlo.apps.googleusercontent.com",
          "client_type": 3
        }
      ],
      "api_key": [
        {
          "current_key": "AIzaSyC005cLzeU-PqwdvMZ0pDQXYL0L0GGEKaU"
        }
      ],
      "services": {
        "appinvite_service": {
          "other_platform_oauth_client": [
            {
              "client_id": "497797327770-1ffubnuhhrjg0eemos7jt4mut0a40qlo.apps.googleusercontent.com",
              "client_type": 3
            }
          ]
        }
      }
    },
    {
      "client_info": {
        "mobilesdk_app_id": "1:497797327770:android:094c45dc42adab38102823",
        "android_client_info": {
          "package_name": "de.sana"
        }
      },
      "oauth_client": [
        {
          "client_id": "497797327770-1ffubnuhhrjg0eemos7jt4mut0a40qlo.apps.googleusercontent.com",
          "client_type": 3
        }
      ],
      "api_key": [
        {
          "current_key": "AIzaSyC005cLzeU-PqwdvMZ0pDQXYL0L0GGEKaU"
        }
      ],
      "services": {
        "appinvite_service": {
          "other_platform_oauth_client": [
            {
              "client_id": "497797327770-1ffubnuhhrjg0eemos7jt4mut0a40qlo.apps.googleusercontent.com",
              "client_type": 3
            }
          ]
        }
      }
    },
    {
      "client_info": {
        "mobilesdk_app_id": "1:497797327770:android:ec370275f8f0c3b3102823",
        "android_client_info": {
          "package_name": "de.vamed"
        }
      },
      "oauth_client": [
        {
          "client_id": "497797327770-1ffubnuhhrjg0eemos7jt4mut0a40qlo.apps.googleusercontent.com",
          "client_type": 3
        }
      ],
      "api_key": [
        {
          "current_key": "AIzaSyC005cLzeU-PqwdvMZ0pDQXYL0L0GGEKaU"
        }
      ],
      "services": {
        "appinvite_service": {
          "other_platform_oauth_client": [
            {
              "client_id": "497797327770-1ffubnuhhrjg0eemos7jt4mut0a40qlo.apps.googleusercontent.com",
              "client_type": 3
            }
          ]
        }
      }
    }
  ],
  "configuration_version": "1"
}