{
  "project_info": {
    "project_number": "497797327770",
    "firebase_url": "https://android2-fb118.firebaseio.com",
    "project_id": "android2-fb118",
    "storage_bucket": "android2-fb118.appspot.com"
  },
  "client": [
    {
      "client_info": {
        "mobilesdk_app_id": "1:497797327770:android:fb278f160ef4ac72102823",
        "android_client_info": {
          "package_name": "com.mdoc.mdockioskdev"
        }
      },
      "oauth_client": [
        {
          "client_id": "497797327770-1ffubnuhhrjg0eemos7jt4mut0a40qlo.apps.googleusercontent.com",
          "client_type": 3
        }
      ],
      "api_key": [
        {
          "current_key": "AIzaSyC005cLzeU-PqwdvMZ0pDQXYL0L0GGEKaU"
        }
      ],
      "services": {
        "appinvite_service": {
          "other_platform_oauth_client": [
            {
              "client_id": "497797327770-1ffubnuhhrjg0eemos7jt4mut0a40qlo.apps.googleusercontent.com",
              "client_type": 3
            },
            {
              "client_id": "497797327770-48i03uhqrhhfs2q4nbnlha5vu6776k96.apps.googleusercontent.com",
              "client_type": 2,
              "ios_info": {
                "bundle_id": "de.salesdemo"
              }
            }
          ]
        }
      }
    },
    {
      "client_info": {
        "mobilesdk_app_id": "1:497797327770:android:4b4cc78facd1daf1102823",
        "android_client_info": {
          "package_name": "de.abenteuerrot"
        }
      },
      "oauth_client": [
        {
          "client_id": "497797327770-1ffubnuhhrjg0eemos7jt4mut0a40qlo.apps.googleusercontent.com",
          "client_type": 3
        }
      ],
      "api_key": [
        {
          "current_key": "AIzaSyC005cLzeU-PqwdvMZ0pDQXYL0L0GGEKaU"
        }
      ],
      "services": {
        "appinvite_service": {
          "other_platform_oauth_client": [
            {
              "client_id": "497797327770-1ffubnuhhrjg0eemos7jt4mut0a40qlo.apps.googleusercontent.com",
              "client_type": 3
            },
            {
              "client_id": "497797327770-48i03uhqrhhfs2q4nbnlha5vu6776k96.apps.googleusercontent.com",
              "client_type": 2,
              "ios_info": {
                "bundle_id": "de.salesdemo"
              }
            }
          ]
        }
      }
    },
    {
      "client_info": {
        "mobilesdk_app_id": "1:497797327770:android:14ed5be80bc0c3d7102823",
        "android_client_info": {
          "package_name": "de.ameos"
        }
      },
      "oauth_client": [
        {
          "client_id": "497797327770-1ffubnuhhrjg0eemos7jt4mut0a40qlo.apps.googleusercontent.com",
          "client_type": 3
        }
      ],
      "api_key": [
        {
          "current_key": "AIzaSyC005cLzeU-PqwdvMZ0pDQXYL0L0GGEKaU"
        }
      ],
      "services": {
        "appinvite_service": {
          "other_platform_oauth_client": [
            {
              "client_id": "497797327770-1ffubnuhhrjg0eemos7jt4mut0a40qlo.apps.googleusercontent.com",
              "client_type": 3
            },
            {
              "client_id": "497797327770-48i03uhqrhhfs2q4nbnlha5vu6776k96.apps.googleusercontent.com",
              "client_type": 2,
              "ios_info": {
                "bundle_id": "de.salesdemo"
              }
            }
          ]
        }
      }
    },
    {
      "client_info": {
        "mobilesdk_app_id": "1:497797327770:android:e5685acda72f8245102823",
        "android_client_info": {
          "package_name": "de.bielefeld"
        }
      },
      "oauth_client": [
        {
          "client_id": "497797327770-1ffubnuhhrjg0eemos7jt4mut0a40qlo.apps.googleusercontent.com",
          "client_type": 3
        }
      ],
      "api_key": [
        {
          "current_key": "AIzaSyC005cLzeU-PqwdvMZ0pDQXYL0L0GGEKaU"
        }
      ],
      "services": {
        "appinvite_service": {
          "other_platform_oauth_client": [
            {
              "client_id": "497797327770-1ffubnuhhrjg0eemos7jt4mut0a40qlo.apps.googleusercontent.com",
              "client_type": 3
            },
            {
              "client_id": "497797327770-48i03uhqrhhfs2q4nbnlha5vu6776k96.apps.googleusercontent.com",
              "client_type": 2,
              "ios_info": {
                "bundle_id": "de.salesdemo"
              }
            }
          ]
        }
      }
    },
    {
      "client_info": {
        "mobilesdk_app_id": "1:497797327770:android:5f961c017821bfeb102823",
        "android_client_info": {
          "package_name": "de.connectcf"
        }
      },
      "oauth_client": [
        {
          "client_id": "497797327770-1ffubnuhhrjg0eemos7jt4mut0a40qlo.apps.googleusercontent.com",
          "client_type": 3
        }
      ],
      "api_key": [
        {
          "current_key": "AIzaSyC005cLzeU-PqwdvMZ0pDQXYL0L0GGEKaU"
        }
      ],
      "services": {
        "appinvite_service": {
          "other_platform_oauth_client": [
            {
              "client_id": "497797327770-1ffubnuhhrjg0eemos7jt4mut0a40qlo.apps.googleusercontent.com",
              "client_type": 3
            },
            {
              "client_id": "497797327770-48i03uhqrhhfs2q4nbnlha5vu6776k96.apps.googleusercontent.com",
              "client_type": 2,
              "ios_info": {
                "bundle_id": "de.salesdemo"
              }
            }
          ]
        }
      }
    },
    {
      "client_info": {
        "mobilesdk_app_id": "1:497797327770:android:6881764d02142daa102823",
        "android_client_info": {
          "package_name": "de.dualis"
        }
      },
      "oauth_client": [
        {
          "client_id": "497797327770-1ffubnuhhrjg0eemos7jt4mut0a40qlo.apps.googleusercontent.com",
          "client_type": 3
        }
      ],
      "api_key": [
        {
          "current_key": "AIzaSyC005cLzeU-PqwdvMZ0pDQXYL0L0GGEKaU"
        }
      ],
      "services": {
        "appinvite_service": {
          "other_platform_oauth_client": [
            {
              "client_id": "497797327770-1ffubnuhhrjg0eemos7jt4mut0a40qlo.apps.googleusercontent.com",
              "client_type": 3
            },
            {
              "client_id": "497797327770-48i03uhqrhhfs2q4nbnlha5vu6776k96.apps.googleusercontent.com",
              "client_type": 2,
              "ios_info": {
                "bundle_id": "de.salesdemo"
              }
            }
          ]
        }
      }
    },
    {
      "client_info": {
        "mobilesdk_app_id": "1:497797327770:android:9b3f85ccc3e65485102823",
        "android_client_info": {
          "package_name": "de.fuerstenhof"
        }
      },
      "oauth_client": [
        {
          "client_id": "497797327770-1ffubnuhhrjg0eemos7jt4mut0a40qlo.apps.googleusercontent.com",
          "client_type": 3
        }
      ],
      "api_key": [
        {
          "current_key": "AIzaSyC005cLzeU-PqwdvMZ0pDQXYL0L0GGEKaU"
        }
      ],
      "services": {
        "appinvite_service": {
          "other_platform_oauth_client": [
            {
              "client_id": "497797327770-1ffubnuhhrjg0eemos7jt4mut0a40qlo.apps.googleusercontent.com",
              "client_type": 3
            },
            {
              "client_id": "497797327770-48i03uhqrhhfs2q4nbnlha5vu6776k96.apps.googleusercontent.com",
              "client_type": 2,
              "ios_info": {
                "bundle_id": "de.salesdemo"
              }
            }
          ]
        }
      }
    },
    {
      "client_info": {
        "mobilesdk_app_id": "1:497797327770:android:7383dc31e5411300102823",
        "android_client_info": {
          "package_name": "de.heinsberg"
        }
      },
      "oauth_client": [
        {
          "client_id": "497797327770-1ffubnuhhrjg0eemos7jt4mut0a40qlo.apps.googleusercontent.com",
          "client_type": 3
        }
      ],
      "api_key": [
        {
          "current_key": "AIzaSyC005cLzeU-PqwdvMZ0pDQXYL0L0GGEKaU"
        }
      ],
      "services": {
        "appinvite_service": {
          "other_platform_oauth_client": [
            {
              "client_id": "497797327770-1ffubnuhhrjg0eemos7jt4mut0a40qlo.apps.googleusercontent.com",
              "client_type": 3
            },
            {
              "client_id": "497797327770-48i03uhqrhhfs2q4nbnlha5vu6776k96.apps.googleusercontent.com",
              "client_type": 2,
              "ios_info": {
                "bundle_id": "de.salesdemo"
              }
            }
          ]
        }
      }
    },
    {
      "client_info": {
        "mobilesdk_app_id": "1:497797327770:android:e62af0b33b60cf84102823",
        "android_client_info": {
          "package_name": "de.imedportal"
        }
      },
      "oauth_client": [
        {
          "client_id": "497797327770-1ffubnuhhrjg0eemos7jt4mut0a40qlo.apps.googleusercontent.com",
          "client_type": 3
        }
      ],
      "api_key": [
        {
          "current_key": "AIzaSyC005cLzeU-PqwdvMZ0pDQXYL0L0GGEKaU"
        }
      ],
      "services": {
        "appinvite_service": {
          "other_platform_oauth_client": [
            {
              "client_id": "497797327770-1ffubnuhhrjg0eemos7jt4mut0a40qlo.apps.googleusercontent.com",
              "client_type": 3
            },
            {
              "client_id": "497797327770-48i03uhqrhhfs2q4nbnlha5vu6776k96.apps.googleusercontent.com",
              "client_type": 2,
              "ios_info": {
                "bundle_id": "de.salesdemo"
              }
            }
          ]
        }
      }
    },
    {
      "client_info": {
        "mobilesdk_app_id": "1:497797327770:android:23423ca13c728653102823",
        "android_client_info": {
          "package_name": "de.ines"
        }
      },
      "oauth_client": [
        {
          "client_id": "497797327770-1ffubnuhhrjg0eemos7jt4mut0a40qlo.apps.googleusercontent.com",
          "client_type": 3
        }
      ],
      "api_key": [
        {
          "current_key": "AIzaSyC005cLzeU-PqwdvMZ0pDQXYL0L0GGEKaU"
        }
      ],
      "services": {
        "appinvite_service": {
          "other_platform_oauth_client": [
            {
              "client_id": "497797327770-1ffubnuhhrjg0eemos7jt4mut0a40qlo.apps.googleusercontent.com",
              "client_type": 3
            },
            {
              "client_id": "497797327770-48i03uhqrhhfs2q4nbnlha5vu6776k96.apps.googleusercontent.com",
              "client_type": 2,
              "ios_info": {
                "bundle_id": "de.salesdemo"
              }
            }
          ]
        }
      }
    },
    {
      "client_info": {
        "mobilesdk_app_id": "1:497797327770:android:194d9a907f266f3e102823",
        "android_client_info": {
          "package_name": "de.itsmylife"
        }
      },
      "oauth_client": [
        {
          "client_id": "497797327770-1ffubnuhhrjg0eemos7jt4mut0a40qlo.apps.googleusercontent.com",
          "client_type": 3
        }
      ],
      "api_key": [
        {
          "current_key": "AIzaSyC005cLzeU-PqwdvMZ0pDQXYL0L0GGEKaU"
        }
      ],
      "services": {
        "appinvite_service": {
          "other_platform_oauth_client": [
            {
              "client_id": "497797327770-1ffubnuhhrjg0eemos7jt4mut0a40qlo.apps.googleusercontent.com",
              "client_type": 3
            },
            {
              "client_id": "497797327770-48i03uhqrhhfs2q4nbnlha5vu6776k96.apps.googleusercontent.com",
              "client_type": 2,
              "ios_info": {
                "bundle_id": "de.salesdemo"
              }
            }
          ]
        }
      }
    },
    {
      "client_info": {
        "mobilesdk_app_id": "1:497797327770:android:6b32ee1bbca360a2102823",
        "android_client_info": {
          "package_name": "de.klak"
        }
      },
      "oauth_client": [
        {
          "client_id": "497797327770-1ffubnuhhrjg0eemos7jt4mut0a40qlo.apps.googleusercontent.com",
          "client_type": 3
        }
      ],
      "api_key": [
        {
          "current_key": "AIzaSyC005cLzeU-PqwdvMZ0pDQXYL0L0GGEKaU"
        }
      ],
      "services": {
        "appinvite_service": {
          "other_platform_oauth_client": [
            {
              "client_id": "497797327770-1ffubnuhhrjg0eemos7jt4mut0a40qlo.apps.googleusercontent.com",
              "client_type": 3
            },
            {
              "client_id": "497797327770-48i03uhqrhhfs2q4nbnlha5vu6776k96.apps.googleusercontent.com",
              "client_type": 2,
              "ios_info": {
                "bundle_id": "de.salesdemo"
              }
            }
          ]
        }
      }
    },
    {
      "client_info": {
        "mobilesdk_app_id": "1:497797327770:android:66259251b130914a102823",
        "android_client_info": {
          "package_name": "de.klinikumdortmund"
        }
      },
      "oauth_client": [
        {
          "client_id": "497797327770-1ffubnuhhrjg0eemos7jt4mut0a40qlo.apps.googleusercontent.com",
          "client_type": 3
        }
      ],
      "api_key": [
        {
          "current_key": "AIzaSyC005cLzeU-PqwdvMZ0pDQXYL0L0GGEKaU"
        }
      ],
      "services": {
        "appinvite_service": {
          "other_platform_oauth_client": [
            {
              "client_id": "497797327770-1ffubnuhhrjg0eemos7jt4mut0a40qlo.apps.googleusercontent.com",
              "client_type": 3
            },
            {
              "client_id": "497797327770-48i03uhqrhhfs2q4nbnlha5vu6776k96.apps.googleusercontent.com",
              "client_type": 2,
              "ios_info": {
                "bundle_id": "de.salesdemo"
              }
            }
          ]
        }
      }
    },
    {
      "client_info": {
        "mobilesdk_app_id": "1:497797327770:android:88bb09a41d3bb592102823",
        "android_client_info": {
          "package_name": "de.louisa"
        }
      },
      "oauth_client": [
        {
          "client_id": "497797327770-1ffubnuhhrjg0eemos7jt4mut0a40qlo.apps.googleusercontent.com",
          "client_type": 3
        }
      ],
      "api_key": [
        {
          "current_key": "AIzaSyC005cLzeU-PqwdvMZ0pDQXYL0L0GGEKaU"
        }
      ],
      "services": {
        "appinvite_service": {
          "other_platform_oauth_client": [
            {
              "client_id": "497797327770-1ffubnuhhrjg0eemos7jt4mut0a40qlo.apps.googleusercontent.com",
              "client_type": 3
            },
            {
              "client_id": "497797327770-48i03uhqrhhfs2q4nbnlha5vu6776k96.apps.googleusercontent.com",
              "client_type": 2,
              "ios_info": {
                "bundle_id": "de.salesdemo"
              }
            }
          ]
        }
      }
    },
    {
      "client_info": {
        "mobilesdk_app_id": "1:497797327770:android:8938dcea6cab6508102823",
        "android_client_info": {
          "package_name": "de.louisa2"
        }
      },
      "oauth_client": [
        {
          "client_id": "497797327770-1ffubnuhhrjg0eemos7jt4mut0a40qlo.apps.googleusercontent.com",
          "client_type": 3
        }
      ],
      "api_key": [
        {
          "current_key": "AIzaSyC005cLzeU-PqwdvMZ0pDQXYL0L0GGEKaU"
        }
      ],
      "services": {
        "appinvite_service": {
          "other_platform_oauth_client": [
            {
              "client_id": "497797327770-1ffubnuhhrjg0eemos7jt4mut0a40qlo.apps.googleusercontent.com",
              "client_type": 3
            },
            {
              "client_id": "497797327770-48i03uhqrhhfs2q4nbnlha5vu6776k96.apps.googleusercontent.com",
              "client_type": 2,
              "ios_info": {
                "bundle_id": "de.salesdemo"
              }
            }
          ]
        }
      }
    },
    {
      "client_info": {
        "mobilesdk_app_id": "1:497797327770:android:b5ad7e0f2edfd5df102823",
        "android_client_info": {
          "package_name": "de.mdoc"
        }
      },
      "oauth_client": [
        {
          "client_id": "497797327770-1ffubnuhhrjg0eemos7jt4mut0a40qlo.apps.googleusercontent.com",
          "client_type": 3
        }
      ],
      "api_key": [
        {
          "current_key": "AIzaSyC005cLzeU-PqwdvMZ0pDQXYL0L0GGEKaU"
        }
      ],
      "services": {
        "appinvite_service": {
          "other_platform_oauth_client": [
            {
              "client_id": "497797327770-1ffubnuhhrjg0eemos7jt4mut0a40qlo.apps.googleusercontent.com",
              "client_type": 3
            },
            {
              "client_id": "497797327770-48i03uhqrhhfs2q4nbnlha5vu6776k96.apps.googleusercontent.com",
              "client_type": 2,
              "ios_info": {
                "bundle_id": "de.salesdemo"
              }
            }
          ]
        }
      }
    },
    {
      "client_info": {
        "mobilesdk_app_id": "1:497797327770:android:7fa3e86f13350876102823",
        "android_client_info": {
          "package_name": "de.oberberg"
        }
      },
      "oauth_client": [
        {
          "client_id": "497797327770-1ffubnuhhrjg0eemos7jt4mut0a40qlo.apps.googleusercontent.com",
          "client_type": 3
        }
      ],
      "api_key": [
        {
          "current_key": "AIzaSyC005cLzeU-PqwdvMZ0pDQXYL0L0GGEKaU"
        }
      ],
      "services": {
        "appinvite_service": {
          "other_platform_oauth_client": [
            {
              "client_id": "497797327770-1ffubnuhhrjg0eemos7jt4mut0a40qlo.apps.googleusercontent.com",
              "client_type": 3
            },
            {
              "client_id": "497797327770-48i03uhqrhhfs2q4nbnlha5vu6776k96.apps.googleusercontent.com",
              "client_type": 2,
              "ios_info": {
                "bundle_id": "de.salesdemo"
              }
            }
          ]
        }
      }
    },
    {
      "client_info": {
        "mobilesdk_app_id": "1:497797327770:android:744ec4c0b6a039d9102823",
        "android_client_info": {
          "package_name": "de.presale"
        }
      },
      "oauth_client": [
        {
          "client_id": "497797327770-1ffubnuhhrjg0eemos7jt4mut0a40qlo.apps.googleusercontent.com",
          "client_type": 3
        }
      ],
      "api_key": [
        {
          "current_key": "AIzaSyC005cLzeU-PqwdvMZ0pDQXYL0L0GGEKaU"
        }
      ],
      "services": {
        "appinvite_service": {
          "other_platform_oauth_client": [
            {
              "client_id": "497797327770-1ffubnuhhrjg0eemos7jt4mut0a40qlo.apps.googleusercontent.com",
              "client_type": 3
            },
            {
              "client_id": "497797327770-48i03uhqrhhfs2q4nbnlha5vu6776k96.apps.googleusercontent.com",
              "client_type": 2,
              "ios_info": {
                "bundle_id": "de.salesdemo"
              }
            }
          ]
        }
      }
    },
    {
      "client_info": {
        "mobilesdk_app_id": "1:497797327770:android:667f7d07f7588b59102823",
        "android_client_info": {
          "package_name": "de.salesdemo"
        }
      },
      "oauth_client": [
        {
          "client_id": "497797327770-1ffubnuhhrjg0eemos7jt4mut0a40qlo.apps.googleusercontent.com",
          "client_type": 3
        }
      ],
      "api_key": [
        {
          "current_key": "AIzaSyC005cLzeU-PqwdvMZ0pDQXYL0L0GGEKaU"
        }
      ],
      "services": {
        "appinvite_service": {
          "other_platform_oauth_client": [
            {
              "client_id": "497797327770-1ffubnuhhrjg0eemos7jt4mut0a40qlo.apps.googleusercontent.com",
              "client_type": 3
            },
            {
              "client_id": "497797327770-48i03uhqrhhfs2q4nbnlha5vu6776k96.apps.googleusercontent.com",
              "client_type": 2,
              "ios_info": {
                "bundle_id": "de.salesdemo"
              }
            }
          ]
        }
      }
    },
    {
      "client_info": {
        "mobilesdk_app_id": "1:497797327770:android:094c45dc42adab38102823",
        "android_client_info": {
          "package_name": "de.sana"
        }
      },
      "oauth_client": [
        {
          "client_id": "497797327770-1ffubnuhhrjg0eemos7jt4mut0a40qlo.apps.googleusercontent.com",
          "client_type": 3
        }
      ],
      "api_key": [
        {
          "current_key": "AIzaSyC005cLzeU-PqwdvMZ0pDQXYL0L0GGEKaU"
        }
      ],
      "services": {
        "appinvite_service": {
          "other_platform_oauth_client": [
            {
              "client_id": "497797327770-1ffubnuhhrjg0eemos7jt4mut0a40qlo.apps.googleusercontent.com",
              "client_type": 3
            },
            {
              "client_id": "497797327770-48i03uhqrhhfs2q4nbnlha5vu6776k96.apps.googleusercontent.com",
              "client_type": 2,
              "ios_info": {
                "bundle_id": "de.salesdemo"
              }
            }
          ]
        }
      }
    },
    {
      "client_info": {
        "mobilesdk_app_id": "1:497797327770:android:39c36c264378f509102823",
        "android_client_info": {
          "package_name": "de.schedel"
        }
      },
      "oauth_client": [
        {
          "client_id": "497797327770-1ffubnuhhrjg0eemos7jt4mut0a40qlo.apps.googleusercontent.com",
          "client_type": 3
        }
      ],
      "api_key": [
        {
          "current_key": "AIzaSyC005cLzeU-PqwdvMZ0pDQXYL0L0GGEKaU"
        }
      ],
      "services": {
        "appinvite_service": {
          "other_platform_oauth_client": [
            {
              "client_id": "497797327770-1ffubnuhhrjg0eemos7jt4mut0a40qlo.apps.googleusercontent.com",
              "client_type": 3
            },
            {
              "client_id": "497797327770-48i03uhqrhhfs2q4nbnlha5vu6776k96.apps.googleusercontent.com",
              "client_type": 2,
              "ios_info": {
                "bundle_id": "de.salesdemo"
              }
            }
          ]
        }
      }
    },
    {
      "client_info": {
        "mobilesdk_app_id": "1:497797327770:android:2ce16c1544d36a8a102823",
        "android_client_info": {
          "package_name": "de.smartpractice"
        }
      },
      "oauth_client": [
        {
          "client_id": "497797327770-1ffubnuhhrjg0eemos7jt4mut0a40qlo.apps.googleusercontent.com",
          "client_type": 3
        }
      ],
      "api_key": [
        {
          "current_key": "AIzaSyC005cLzeU-PqwdvMZ0pDQXYL0L0GGEKaU"
        }
      ],
      "services": {
        "appinvite_service": {
          "other_platform_oauth_client": [
            {
              "client_id": "497797327770-1ffubnuhhrjg0eemos7jt4mut0a40qlo.apps.googleusercontent.com",
              "client_type": 3
            },
            {
              "client_id": "497797327770-48i03uhqrhhfs2q4nbnlha5vu6776k96.apps.googleusercontent.com",
              "client_type": 2,
              "ios_info": {
                "bundle_id": "de.salesdemo"
              }
            }
          ]
        }
      }
    },
    {
      "client_info": {
        "mobilesdk_app_id": "1:497797327770:android:1719d8862ebc53ce102823",
        "android_client_info": {
          "package_name": "de.umeship"
        }
      },
      "oauth_client": [
        {
          "client_id": "497797327770-1ffubnuhhrjg0eemos7jt4mut0a40qlo.apps.googleusercontent.com",
          "client_type": 3
        }
      ],
      "api_key": [
        {
          "current_key": "AIzaSyC005cLzeU-PqwdvMZ0pDQXYL0L0GGEKaU"
        }
      ],
      "services": {
        "appinvite_service": {
          "other_platform_oauth_client": [
            {
              "client_id": "497797327770-1ffubnuhhrjg0eemos7jt4mut0a40qlo.apps.googleusercontent.com",
              "client_type": 3
            },
            {
              "client_id": "497797327770-48i03uhqrhhfs2q4nbnlha5vu6776k96.apps.googleusercontent.com",
              "client_type": 2,
              "ios_info": {
                "bundle_id": "de.salesdemo"
              }
            }
          ]
        }
      }
    },
    {
      "client_info": {
        "mobilesdk_app_id": "1:497797327770:android:ec370275f8f0c3b3102823",
        "android_client_info": {
          "package_name": "de.vamed"
        }
      },
      "oauth_client": [
        {
          "client_id": "497797327770-1ffubnuhhrjg0eemos7jt4mut0a40qlo.apps.googleusercontent.com",
          "client_type": 3
        }
      ],
      "api_key": [
        {
          "current_key": "AIzaSyC005cLzeU-PqwdvMZ0pDQXYL0L0GGEKaU"
        }
      ],
      "services": {
        "appinvite_service": {
          "other_platform_oauth_client": [
            {
              "client_id": "497797327770-1ffubnuhhrjg0eemos7jt4mut0a40qlo.apps.googleusercontent.com",
              "client_type": 3
            },
            {
              "client_id": "497797327770-48i03uhqrhhfs2q4nbnlha5vu6776k96.apps.googleusercontent.com",
              "client_type": 2,
              "ios_info": {
                "bundle_id": "de.salesdemo"
              }
            }
          ]
        }
      }
    },
    {
      "client_info": {
        "mobilesdk_app_id": "1:497797327770:android:c32f02e44c4fc582102823",
        "android_client_info": {
          "package_name": "de.wicker"
        }
      },
      "oauth_client": [
        {
          "client_id": "497797327770-1ffubnuhhrjg0eemos7jt4mut0a40qlo.apps.googleusercontent.com",
          "client_type": 3
        }
      ],
      "api_key": [
        {
          "current_key": "AIzaSyC005cLzeU-PqwdvMZ0pDQXYL0L0GGEKaU"
        }
      ],
      "services": {
        "appinvite_service": {
          "other_platform_oauth_client": [
            {
              "client_id": "497797327770-1ffubnuhhrjg0eemos7jt4mut0a40qlo.apps.googleusercontent.com",
              "client_type": 3
            },
            {
              "client_id": "497797327770-48i03uhqrhhfs2q4nbnlha5vu6776k96.apps.googleusercontent.com",
              "client_type": 2,
              "ios_info": {
                "bundle_id": "de.salesdemo"
              }
            }
          ]
        }
      }
    }
  ],
  "configuration_version": "1"
}